<svg version="1.1" id="el_9KAFlOhDV" xmlns="http://www.w3.org/2000/svg" xmlns:xlink="http://www.w3.org/1999/xlink" x="0px" y="0px" viewBox="0 0 512 512" style="enable-background:new 0 0 512.001 512.001;" xml:space="preserve"><style>@-webkit-keyframes kf_el_2EzIaSLJTF_an_B7CpZtbfu{0%{-webkit-transform: translate(392.0534973144531px, 127.16606903076172px) translate(-392.0534973144531px, -127.16606903076172px) translate(0px, 0px);transform: translate(392.0534973144531px, 127.16606903076172px) translate(-392.0534973144531px, -127.16606903076172px) translate(0px, 0px);}16.67%{-webkit-transform: translate(392.0534973144531px, 127.16606903076172px) translate(-392.0534973144531px, -127.16606903076172px) translate(-10px, 0px);transform: translate(392.0534973144531px, 127.16606903076172px) translate(-392.0534973144531px, -127.16606903076172px) translate(-10px, 0px);}33.33%{-webkit-transform: translate(392.0534973144531px, 127.16606903076172px) translate(-392.0534973144531px, -127.16606903076172px) translate(0px, 0px);transform: translate(392.0534973144531px, 127.16606903076172px) translate(-392.0534973144531px, -127.16606903076172px) translate(0px, 0px);}50%{-webkit-transform: translate(392.0534973144531px, 127.16606903076172px) translate(-392.0534973144531px, -127.16606903076172px) translate(-10px, 0px);transform: translate(392.0534973144531px, 127.16606903076172px) translate(-392.0534973144531px, -127.16606903076172px) translate(-10px, 0px);}66.67%{-webkit-transform: translate(392.0534973144531px, 127.16606903076172px) translate(-392.0534973144531px, -127.16606903076172px) translate(0px, 0px);transform: translate(392.0534973144531px, 127.16606903076172px) translate(-392.0534973144531px, -127.16606903076172px) translate(0px, 0px);}83.33%{-webkit-transform: translate(392.0534973144531px, 127.16606903076172px) translate(-392.0534973144531px, -127.16606903076172px) translate(-10px, 0px);transform: translate(392.0534973144531px, 127.16606903076172px) translate(-392.0534973144531px, -127.16606903076172px) translate(-10px, 0px);}100%{-webkit-transform: translate(392.0534973144531px, 127.16606903076172px) translate(-392.0534973144531px, -127.16606903076172px) translate(0px, 0px);transform: translate(392.0534973144531px, 127.16606903076172px) translate(-392.0534973144531px, -127.16606903076172px) translate(0px, 0px);}}@keyframes kf_el_2EzIaSLJTF_an_B7CpZtbfu{0%{-webkit-transform: translate(392.0534973144531px, 127.16606903076172px) translate(-392.0534973144531px, -127.16606903076172px) translate(0px, 0px);transform: translate(392.0534973144531px, 127.16606903076172px) translate(-392.0534973144531px, -127.16606903076172px) translate(0px, 0px);}16.67%{-webkit-transform: translate(392.0534973144531px, 127.16606903076172px) translate(-392.0534973144531px, -127.16606903076172px) translate(-10px, 0px);transform: translate(392.0534973144531px, 127.16606903076172px) translate(-392.0534973144531px, -127.16606903076172px) translate(-10px, 0px);}33.33%{-webkit-transform: translate(392.0534973144531px, 127.16606903076172px) translate(-392.0534973144531px, -127.16606903076172px) translate(0px, 0px);transform: translate(392.0534973144531px, 127.16606903076172px) translate(-392.0534973144531px, -127.16606903076172px) translate(0px, 0px);}50%{-webkit-transform: translate(392.0534973144531px, 127.16606903076172px) translate(-392.0534973144531px, -127.16606903076172px) translate(-10px, 0px);transform: translate(392.0534973144531px, 127.16606903076172px) translate(-392.0534973144531px, -127.16606903076172px) translate(-10px, 0px);}66.67%{-webkit-transform: translate(392.0534973144531px, 127.16606903076172px) translate(-392.0534973144531px, -127.16606903076172px) translate(0px, 0px);transform: translate(392.0534973144531px, 127.16606903076172px) translate(-392.0534973144531px, -127.16606903076172px) translate(0px, 0px);}83.33%{-webkit-transform: translate(392.0534973144531px, 127.16606903076172px) translate(-392.0534973144531px, -127.16606903076172px) translate(-10px, 0px);transform: translate(392.0534973144531px, 127.16606903076172px) translate(-392.0534973144531px, -127.16606903076172px) translate(-10px, 0px);}100%{-webkit-transform: translate(392.0534973144531px, 127.16606903076172px) translate(-392.0534973144531px, -127.16606903076172px) translate(0px, 0px);transform: translate(392.0534973144531px, 127.16606903076172px) translate(-392.0534973144531px, -127.16606903076172px) translate(0px, 0px);}}@-webkit-keyframes kf_el_OmcSKP6FxQ_an_eIhnUUCla{0%{-webkit-transform: translate(0px, 127.16606903076172px) translate(0px, -127.16606903076172px) translate(0px, 0px);transform: translate(0px, 127.16606903076172px) translate(0px, -127.16606903076172px) translate(0px, 0px);}16.67%{-webkit-transform: translate(0px, 127.16606903076172px) translate(0px, -127.16606903076172px) translate(10px, 0px);transform: translate(0px, 127.16606903076172px) translate(0px, -127.16606903076172px) translate(10px, 0px);}33.33%{-webkit-transform: translate(0px, 127.16606903076172px) translate(0px, -127.16606903076172px) translate(0px, 0px);transform: translate(0px, 127.16606903076172px) translate(0px, -127.16606903076172px) translate(0px, 0px);}50%{-webkit-transform: translate(0px, 127.16606903076172px) translate(0px, -127.16606903076172px) translate(10px, 0px);transform: translate(0px, 127.16606903076172px) translate(0px, -127.16606903076172px) translate(10px, 0px);}66.67%{-webkit-transform: translate(0px, 127.16606903076172px) translate(0px, -127.16606903076172px) translate(0px, 0px);transform: translate(0px, 127.16606903076172px) translate(0px, -127.16606903076172px) translate(0px, 0px);}83.33%{-webkit-transform: translate(0px, 127.16606903076172px) translate(0px, -127.16606903076172px) translate(10px, 0px);transform: translate(0px, 127.16606903076172px) translate(0px, -127.16606903076172px) translate(10px, 0px);}100%{-webkit-transform: translate(0px, 127.16606903076172px) translate(0px, -127.16606903076172px) translate(0px, 0px);transform: translate(0px, 127.16606903076172px) translate(0px, -127.16606903076172px) translate(0px, 0px);}}@keyframes kf_el_OmcSKP6FxQ_an_eIhnUUCla{0%{-webkit-transform: translate(0px, 127.16606903076172px) translate(0px, -127.16606903076172px) translate(0px, 0px);transform: translate(0px, 127.16606903076172px) translate(0px, -127.16606903076172px) translate(0px, 0px);}16.67%{-webkit-transform: translate(0px, 127.16606903076172px) translate(0px, -127.16606903076172px) translate(10px, 0px);transform: translate(0px, 127.16606903076172px) translate(0px, -127.16606903076172px) translate(10px, 0px);}33.33%{-webkit-transform: translate(0px, 127.16606903076172px) translate(0px, -127.16606903076172px) translate(0px, 0px);transform: translate(0px, 127.16606903076172px) translate(0px, -127.16606903076172px) translate(0px, 0px);}50%{-webkit-transform: translate(0px, 127.16606903076172px) translate(0px, -127.16606903076172px) translate(10px, 0px);transform: translate(0px, 127.16606903076172px) translate(0px, -127.16606903076172px) translate(10px, 0px);}66.67%{-webkit-transform: translate(0px, 127.16606903076172px) translate(0px, -127.16606903076172px) translate(0px, 0px);transform: translate(0px, 127.16606903076172px) translate(0px, -127.16606903076172px) translate(0px, 0px);}83.33%{-webkit-transform: translate(0px, 127.16606903076172px) translate(0px, -127.16606903076172px) translate(10px, 0px);transform: translate(0px, 127.16606903076172px) translate(0px, -127.16606903076172px) translate(10px, 0px);}100%{-webkit-transform: translate(0px, 127.16606903076172px) translate(0px, -127.16606903076172px) translate(0px, 0px);transform: translate(0px, 127.16606903076172px) translate(0px, -127.16606903076172px) translate(0px, 0px);}}#el_9KAFlOhDV *{-webkit-animation-duration: 3s;animation-duration: 3s;-webkit-animation-iteration-count: 1;animation-iteration-count: 1;-webkit-animation-timing-function: cubic-bezier(0, 0, 1, 1);animation-timing-function: cubic-bezier(0, 0, 1, 1);}#el_ocQrqJRRHA{fill: url(#SVGID_1_);}#el_ZKYQTmmT1M{fill: url(#SVGID_2_);}#el_dwVY3KFpo_{fill: url(#SVGID_3_);}#el_OgGDw2fgQJ{fill: url(#SVGID_4_);}#el_OmcSKP6FxQ{fill: url(#SVGID_5_);}#el_2EzIaSLJTF{fill: url(#SVGID_6_);}#el_OmcSKP6FxQ_an_eIhnUUCla{-webkit-animation-fill-mode: backwards;animation-fill-mode: backwards;-webkit-transform: translate(0px, 127.16606903076172px) translate(0px, -127.16606903076172px) translate(0px, 0px);transform: translate(0px, 127.16606903076172px) translate(0px, -127.16606903076172px) translate(0px, 0px);-webkit-animation-name: kf_el_OmcSKP6FxQ_an_eIhnUUCla;animation-name: kf_el_OmcSKP6FxQ_an_eIhnUUCla;-webkit-animation-timing-function: cubic-bezier(0.42, 0, 1, 1);animation-timing-function: cubic-bezier(0.42, 0, 1, 1);}#el_2EzIaSLJTF_an_B7CpZtbfu{-webkit-animation-fill-mode: backwards;animation-fill-mode: backwards;-webkit-transform: translate(392.0534973144531px, 127.16606903076172px) translate(-392.0534973144531px, -127.16606903076172px) translate(0px, 0px);transform: translate(392.0534973144531px, 127.16606903076172px) translate(-392.0534973144531px, -127.16606903076172px) translate(0px, 0px);-webkit-animation-name: kf_el_2EzIaSLJTF_an_B7CpZtbfu;animation-name: kf_el_2EzIaSLJTF_an_B7CpZtbfu;-webkit-animation-timing-function: cubic-bezier(0.42, 0, 1, 1);animation-timing-function: cubic-bezier(0.42, 0, 1, 1);}</style>
<linearGradient id="SVGID_1_" gradientUnits="userSpaceOnUse" x1="249.1886" y1="259.5453" x2="547.1586" y2="259.5453" gradientTransform="matrix(1.0039 0 0 -1.0039 0.1922 516.5636)">
	<stop offset="0" style="stop-color:#FFE7A5"/>
	<stop offset="0.966" style="stop-color:#FFBF5C"/>
</linearGradient>
<path d="M360.689,33.303c-75.959-9.841-195.505-3.97-242.179,0.297&#10;&#9;c-13.516,1.236-20.77,16.475-13.241,27.767c23.077,34.611,57.954,97.843,35.204,136.235&#10;&#9;c-31.985,53.975-95.391,119.732-33.952,266.724c2.2,5.263,6.646,9.282,12.106,10.928c20.134,6.067,72.817,17.76,131.731-2.938&#10;&#9;c0,0,67.549,16.887,116.161,2.014c3.907-1.196,7.34-3.562,9.816-6.813c16.548-21.724,77.097-115.289,4.258-241.426&#10;&#9;c-41.623-72.078-14.213-130.473-4.869-170.905C378.111,44.865,371.197,34.665,360.689,33.303z" id="el_ocQrqJRRHA"/>
<linearGradient id="SVGID_2_" gradientUnits="userSpaceOnUse" x1="363.8488" y1="111.5746" x2="185.8488" y2="289.5746" gradientTransform="matrix(1.0039 0 0 -1.0039 0.1922 516.5636)">
	<stop offset="0" style="stop-color:#FF5D00;stop-opacity:0"/>
	<stop offset="1" style="stop-color:#D54003"/>
</linearGradient>
<path d="M366.521,474.331c3.907-1.196,7.34-3.562,9.816-6.813&#10;&#9;c15.55-20.413,69.938-104.26,16.016-218.956c-52.252,60.575-141.993,94.76-141.993,94.76v128.995&#10;&#9;C250.359,472.317,317.908,489.204,366.521,474.331z" id="el_ZKYQTmmT1M"/>
<linearGradient id="SVGID_3_" gradientUnits="userSpaceOnUse" x1="276.3648" y1="234.2606" x2="348.7948" y2="161.8206" gradientTransform="matrix(1.0039 0 0 -1.0039 0.1922 516.5636)">
	<stop offset="0" style="stop-color:#FF7BAC"/>
	<stop offset="1" style="stop-color:#E24786"/>
</linearGradient>
<path d="M388.573,243.045c-28.791,28.024-62.742,43.831-98.079,49.994&#10;&#9;c-28.314,4.935-58.254,3.101-88.994-5.452c-52.754-14.681-87.933-42.937-88.3-43.242c-3.722-3.101-13.336,11.476-9.964,15.351&#10;&#9;c2.615,3.005,106.974,58.517,137.3,124.159c3.776,8.172,14.448,10.199,20.801,3.82c7.059-7.089,22.288-16.969,37.908-28.576&#10;&#9;c33.699-25.03,75.088-67.482,90.608-88.55c3.378-4.586,5.4-9.377,6.491-13.648C398.058,250.197,392.177,239.537,388.573,243.045z" id="el_dwVY3KFpo_"/>
<linearGradient id="SVGID_4_" gradientUnits="userSpaceOnUse" x1="361.4701" y1="250.687" x2="-2.5699" y2="326.657" gradientTransform="matrix(1.0039 0 0 -1.0039 0.1922 516.5636)">
	<stop offset="0" style="stop-color:#FF5D00;stop-opacity:0"/>
	<stop offset="1" style="stop-color:#D54003"/>
</linearGradient>
<ellipse cx="252.928" cy="241.906" rx="5.493" ry="12.634" id="el_OgGDw2fgQJ"/>
<linearGradient id="SVGID_5_" gradientUnits="userSpaceOnUse" x1="59.5477" y1="354.1344" x2="59.5477" y2="320.8444" gradientTransform="matrix(1.0039 0 0 -1.0039 0.1922 516.5636)">
	<stop offset="0" style="stop-color:#FF931E"/>
	<stop offset="1" style="stop-color:#FF5D00"/>
</linearGradient>
<g id="el_OmcSKP6FxQ_an_eIhnUUCla" data-animator-group="true" data-animator-type="0"><path d="M117.381,155.906L91.224,129.75c-5.52-5.52-14.956-1.61-14.956,6.195l0,0&#10;&#9;c0,4.839-3.922,8.761-8.761,8.761H8.761c-4.839,0-8.761,3.922-8.761,8.761v17.266c0,4.839,3.922,8.761,8.761,8.761h58.746&#10;&#9;c4.839,0,8.761,3.922,8.761,8.761l0,0c0,7.805,9.437,11.715,14.956,6.195l26.156-26.156&#10;&#9;C120.802,164.875,120.802,159.328,117.381,155.906z" id="el_OmcSKP6FxQ"/></g>
<linearGradient id="SVGID_6_" gradientUnits="userSpaceOnUse" x1="450.0701" y1="354.1344" x2="450.0701" y2="320.8444" gradientTransform="matrix(1.0039 0 0 -1.0039 0.1922 516.5636)">
	<stop offset="0" style="stop-color:#FF931E"/>
	<stop offset="1" style="stop-color:#FF5D00"/>
</linearGradient>
<g id="el_2EzIaSLJTF_an_B7CpZtbfu" data-animator-group="true" data-animator-type="0"><path d="M394.62,155.906l26.156-26.156c5.52-5.52,14.956-1.61,14.956,6.195l0,0&#10;&#9;c0,4.839,3.922,8.761,8.761,8.761h58.746c4.839,0,8.761,3.922,8.761,8.761v17.266c0,4.839-3.922,8.761-8.761,8.761h-58.746&#10;&#9;c-4.839,0-8.761,3.922-8.761,8.761l0,0c0,7.805-9.437,11.715-14.956,6.195l-26.156-26.156&#10;&#9;C391.198,164.875,391.198,159.328,394.62,155.906z" id="el_2EzIaSLJTF"/></g>
<g id="el_Y4CImz125V">
</g>
<g id="el_SN6efEGeRZ">
</g>
<g id="el_-U8LKfB1iv">
</g>
<g id="el_ismkqcBn1n">
</g>
<g id="el_Tc17XTU1sv">
</g>
<g id="el_YCTmZ-VQ4m">
</g>
<g id="el_BBPOIyM-PH">
</g>
<g id="el_RVbaCLFn8h">
</g>
<g id="el_8mg08ZhxuD">
</g>
<g id="el_UkIbXLOXrsJ">
</g>
<g id="el_-oI6p9MBivX">
</g>
<g id="el_wuyRFc02ayc">
</g>
<g id="el_NTidPs11srf">
</g>
<g id="el_EDsB5bHQJqX">
</g>
<g id="el_MkqXMBw1xfF">
</g>
</svg>